{
  "project_info": {
    "project_number": "962144550419",
    "project_id": "sugarlife-alux",
    "storage_bucket": "sugarlife-alux.appspot.com"
  },
  "client": [
    {
      "client_info": {
        "mobilesdk_app_id": "1:962144550419:android:277f040353e1daa821c9e6",
        "android_client_info": {
          "package_name": "kz.alux.sugarlife"
        }
      },
      "oauth_client": [
        {
          "client_id": "962144550419-uo8aj0d7vocr0dtdr6h5i0mvhcljkgct.apps.googleusercontent.com",
          "client_type": 3
        }
      ],
      "api_key": [
        {
          "current_key": "AIzaSyDznrZV7hO1IoiJMtOsn6BtbmWe64BY66k"
        }
      ],
      "services": {
        "appinvite_service": {
          "other_platform_oauth_client": [
            {
              "client_id": "962144550419-uo8aj0d7vocr0dtdr6h5i0mvhcljkgct.apps.googleusercontent.com",
              "client_type": 3
            }
          ]
        }
      }
    }
  ],
  "configuration_version": "1"
}